module bitbucket.org/bitcentral/systray

go 1.13

require (
	github.com/getlantern/golog v0.0.0-20190830074920-4ef2e798c2d7
	github.com/lxn/walk v0.0.0-20210112085537-c389da54e794
	github.com/lxn/win v0.0.0-20210218163916-a377121e959e // indirect
	github.com/skratchdot/open-golang v0.0.0-20200116055534-eef842397966
	golang.org/x/sys v0.0.0-20201018230417-eeed37f84f13
	gopkg.in/Knetic/govaluate.v3 v3.0.0 // indirect
)
